cnetPlot — cnetPlot • SigFun
…
#> 
#> $tableEdgeCnetPlot
#> # A tibble: 61,521 × 2
#>    from                 to    
#>    <chr>                <chr> 
#>  1 HALLMARK_E2F_TARGETS CCNB2 
#>  2 HALLMARK_E2F_TARGETS ORC6  
#>  3 HALLMARK_E2F_TARGETS RFC3  
#>  4 HALLMARK_E2F_TARGETS PLK1  
#>  5 HALLMARK_E2F_TARGETS STMN1 
#>  6 HALLMARK_E2F_TARGETS CKS1B 
#>  7 HALLMARK_E2F_TARGETS DIAPH3
#>  8 HALLMARK_E2F_TARGETS DLGAP5
#>  9 HALLMARK_E2F_TARGETS TRIP13
#> 10 HALLMARK_E2F_TARGETS SMC4  
#> # ℹ 61,511 more rows
…
